<?xml version="1.0" standalone="no"?>
<!DOCTYPE svg PUBLIC "-//W3C//DTD SVG 1.1//EN" "http://www.w3.org/Graphics/SVG/1.1/DTD/svg11.dtd" >
<svg xmlns="http://www.w3.org/2000/svg">
<metadata>Generated by IcoMoon</metadata>
<defs>
<font id="icomoon" horiz-adv-x="1024">
<font-face units-per-em="1024" ascent="960" descent="-64" />
<missing-glyph horiz-adv-x="1024" />
<glyph unicode="&#x20;" horiz-adv-x="512" d="" />
<glyph unicode="&#xe900;" glyph-name="order" d="M1014.574 213.83c-8.134 8.141-21.335 8.141-29.465 0l-206.688-206.684v932.016c0 11.506-9.332 20.838-20.838 20.838s-20.838-9.332-20.838-20.838v-932.013l-206.691 206.688c-8.134 8.134-21.331 8.137-29.469-0.003-8.137-8.137-8.137-21.331 0.003-29.469l242.262-242.259c4.067-4.067 9.402-6.102 14.733-6.102s10.666 2.035 14.733 6.106l242.259 242.259c8.141 8.134 8.141 21.328 0 29.462zM24.159 918.323h625.624c11.506 0 20.838 9.332 20.838 20.838s-9.332 20.838-20.838 20.838h-625.624c-11.506 0-20.838-9.332-20.838-20.838s9.332-20.838 20.838-20.838zM24.159 674.418h625.624c11.506 0 20.838 9.332 20.838 20.838s-9.332 20.838-20.838 20.838h-625.624c-11.506 0-20.838-9.332-20.838-20.838s9.332-20.838 20.838-20.838zM24.159 430.513h625.624c11.506 0 20.838 9.332 20.838 20.838s-9.332 20.838-20.838 20.838h-625.624c-11.506 0-20.838-9.332-20.838-20.838s9.332-20.838 20.838-20.838zM432.179 228.281h-408.020c-11.506 0-20.838-9.332-20.838-20.838s9.332-20.838 20.838-20.838h408.020c11.506 0 20.838 9.332 20.838 20.838s-9.329 20.838-20.838 20.838zM432.179-15.62h-408.020c-11.506 0-20.838-9.332-20.838-20.838s9.332-20.838 20.838-20.838h408.020c11.506 0 20.838 9.332 20.838 20.838s-9.329 20.838-20.838 20.838z" />
<glyph unicode="&#xe901;" glyph-name="alpha-order" d="M430.778 155.432h-109.716v786.283c0 5.33-1.709 9.719-5.14 13.144-3.428 3.422-7.806 5.142-13.144 5.142h-109.716c-5.33 0-9.719-1.711-13.144-5.14-3.42-3.433-5.14-7.816-5.14-13.144v-786.283h-109.718c-8.374 0-14.088-3.807-17.138-11.424-3.052-7.247-1.713-13.91 3.997-20.007l182.855-182.863c4.195-3.416 8.568-5.128 13.144-5.128 4.952 0 9.335 1.711 13.144 5.128l182.285 182.289c3.815 4.561 5.716 9.149 5.716 13.698 0 5.356-1.709 9.725-5.14 13.178-3.43 3.414-7.806 5.128-13.146 5.128zM857.647 1.137h-141.719c-8 0-13.714-0.382-17.13-1.137l-8.008-1.143v1.143l6.289 6.289c5.7 6.843 9.713 11.801 12.001 14.829l210.842 302.883v50.849h-323.998v-130.849h68.576v65.712h132.569c6.849 0 12.575 0.576 17.122 1.711 1.145 0 2.576 0.096 4.289 0.29 1.707 0.17 2.952 0.288 3.707 0.288v-1.711l-6.289-5.152c-3.41-3.424-7.431-8.552-11.999-15.423l-210.846-302.292v-51.423h333.711v133.139h-69.13v-68.002h0.014zM937.633 581.708l-131.432 378.292h-92.567l-131.424-378.292h-39.987v-60.572h163.985v60.572h-42.849l26.858 82.284h138.863l26.85-82.284h-42.837v-60.572h164.576v60.572h-40.035zM709.073 726.856l41.712 124.573c1.521 4.573 2.96 10.099 4.289 16.572 1.321 6.477 1.993 9.905 1.993 10.285l1.711 11.424h2.288c0-1.523 0.382-5.332 1.125-11.424l6.871-26.856 41.138-124.573h-101.128z" />
</font></defs></svg>