<svg width="338" height="309" xmlns="http://www.w3.org/2000/svg">
 <g>
  <title>background</title>
  <rect x="-1" y="-1" width="340" height="311" id="canvas_background" fill="none"/>
 </g>

 <g>
  <title>Layer 1</title>
  <path stroke="#ffffff" d="m263.17,138.72456c0,69.018842 -55.894345,124.97044 -124.850112,124.97044c-68.946063,0 -124.850112,-55.951598 -124.850112,-124.97044c0,-69.020783 55.904049,-124.972381 124.850112,-124.972381c68.955767,0 124.850112,55.951598 124.850112,124.972381z" fill="none" fill-rule="evenodd" id="dp_path002" stroke-linejoin="round" stroke-width="20"/>
  <path stroke="#ffffff" d="m253.462027,235.079972l61.530891,47.096056" fill="none" fill-rule="evenodd" id="dp_path003" stroke-linecap="round" stroke-linejoin="round" stroke-width="40"/>
  <path stroke="#ffffff" d="m78.188675,194.572599l60.60797,-120.077962l60.60797,121.214361" fill="none" fill-rule="evenodd" id="dp_path004" stroke-linecap="round" stroke-linejoin="round" stroke-width="20"/>
  <path stroke="#ffffff" d="m111.393951,154.84125l14.171126,0l47.234038,0" fill="none" fill-rule="evenodd" id="dp_path005" stroke-linecap="round" stroke-linejoin="round" stroke-width="15"/>
 </g>
</svg>